{
	"info": {
		"_postman_id": "0ff2c58b-8234-4046-a111-3c5f037329a3",
		"name": "TEST SYMFONY API",
		"schema": "https://schema.getpostman.com/json/collection/v2.1.0/collection.json"
	},
	"item": [
		{
			"name": "Should create user",
			"event": [
				{
					"listen": "test",
					"script": {
						"exec": [
							"pm.environment.set(\"username\", pm.response.json().username);\r",
							" \r",
							"pm.test(\"Status test\", function () {\r",
							"    pm.response.to.have.status(201);\r",
							"});"
						],
						"type": "text/javascript"
					}
				}
			],
			"request": {
				"method": "POST",
				"header": [],
				"body": {
					"mode": "raw",
					"raw": "{\r\n    \"email\": \"{{$randomEmail}}\",\r\n    \"password\": \"password\"\r\n}",
					"options": {
						"raw": {
							"language": "json"
						}
					}
				},
				"url": {
					"raw": "{{base_url}}/api/users",
					"host": [
						"{{base_url}}"
					],
					"path": [
						"api",
						"users"
					]
				}
			},
			"response": []
		},
		{
			"name": "Should not create duplicate user",
			"event": [
				{
					"listen": "test",
					"script": {
						"exec": [
							"pm.test(\"Status test\", function () {\r",
							"    pm.response.to.have.status(500);\r",
							"});"
						],
						"type": "text/javascript"
					}
				}
			],
			"request": {
				"method": "POST",
				"header": [],
				"body": {
					"mode": "raw",
					"raw": "{\r\n    \"email\": \"{{username}}\",\r\n    \"password\": \"password\"\r\n}",
					"options": {
						"raw": {
							"language": "json"
						}
					}
				},
				"url": {
					"raw": "{{base_url}}/api/users",
					"host": [
						"{{base_url}}"
					],
					"path": [
						"api",
						"users"
					]
				}
			},
			"response": []
		},
		{
			"name": "Should generate a token",
			"event": [
				{
					"listen": "test",
					"script": {
						"exec": [
							"pm.environment.set(\"token\", pm.response.json().token);\r",
							" \r",
							"pm.test(\"Status test\", function () {\r",
							"    pm.response.to.have.status(200);\r",
							"});"
						],
						"type": "text/javascript"
					}
				}
			],
			"protocolProfileBehavior": {
				"disableBodyPruning": true
			},
			"request": {
				"method": "GET",
				"header": [],
				"body": {
					"mode": "raw",
					"raw": "{\r\n    \"username\": \"{{username}}\",\r\n    \"password\": \"password\"\r\n}",
					"options": {
						"raw": {
							"language": "json"
						}
					}
				},
				"url": {
					"raw": "{{base_url}}/api/login_check",
					"host": [
						"{{base_url}}"
					],
					"path": [
						"api",
						"login_check"
					]
				}
			},
			"response": []
		},
		{
			"name": "Should create a blog",
			"event": [
				{
					"listen": "test",
					"script": {
						"exec": [
							"pm.environment.set(\"lastBlog\", pm.response.json()['id']);\r",
							" \r",
							"pm.test(\"Status test\", function () {\r",
							"    pm.response.to.have.status(201);\r",
							"});"
						],
						"type": "text/javascript"
					}
				}
			],
			"request": {
				"auth": {
					"type": "bearer",
					"bearer": [
						{
							"key": "token",
							"value": "{{token}}",
							"type": "string"
						}
					]
				},
				"method": "POST",
				"header": [],
				"body": {
					"mode": "raw",
					"raw": "{\r\n    \"number\": {{$randomInt}},\r\n    \"title\": \"{{$randomJobTitle}}\",\r\n    \"description\": \"{{$randomLoremParagraph}}\"\r\n}",
					"options": {
						"raw": {
							"language": "json"
						}
					}
				},
				"url": {
					"raw": "{{base_url}}/api/blogs",
					"host": [
						"{{base_url}}"
					],
					"path": [
						"api",
						"blogs"
					]
				}
			},
			"response": []
		},
		{
			"name": "Should edit a blog",
			"event": [
				{
					"listen": "test",
					"script": {
						"exec": [
							"pm.test(\"Status test\", function () {\r",
							"    pm.response.to.have.status(200);\r",
							"});\r",
							" \r",
							"pm.test(\"Update Title\", function() {\r",
							"    pm.expect(pm.response.json()['title']).to.eql(\"Blog title updated\");\r",
							"});\r",
							"\r",
							"pm.test(\"Update Description\", function() {\r",
							"    pm.expect(pm.response.json()['description']).to.eql(\"Blog description updated\");\r",
							"});"
						],
						"type": "text/javascript"
					}
				}
			],
			"request": {
				"auth": {
					"type": "bearer",
					"bearer": [
						{
							"key": "token",
							"value": "{{token}}",
							"type": "string"
						}
					]
				},
				"method": "PUT",
				"header": [],
				"body": {
					"mode": "raw",
					"raw": "{\r\n    \"number\": 123,\r\n    \"title\": \"Blog title updated\",\r\n    \"description\": \"Blog description updated\"\r\n}",
					"options": {
						"raw": {
							"language": "json"
						}
					}
				},
				"url": {
					"raw": "{{base_url}}/api/blogs/{{lastBlog}}",
					"host": [
						"{{base_url}}"
					],
					"path": [
						"api",
						"blogs",
						"{{lastBlog}}"
					]
				}
			},
			"response": []
		},
		{
			"name": "Should remove a blog",
			"event": [
				{
					"listen": "test",
					"script": {
						"exec": [
							"pm.test(\"Status test\", function () {\r",
							"    pm.response.to.have.status(204);\r",
							"});"
						],
						"type": "text/javascript"
					}
				}
			],
			"request": {
				"auth": {
					"type": "bearer",
					"bearer": [
						{
							"key": "token",
							"value": "{{token}}",
							"type": "string"
						}
					]
				},
				"method": "DELETE",
				"header": [],
				"url": {
					"raw": "{{base_url}}/api/blogs/{{lastBlog}}",
					"host": [
						"{{base_url}}"
					],
					"path": [
						"api",
						"blogs",
						"{{lastBlog}}"
					]
				}
			},
			"response": []
		},
		{
			"name": "Should not remove a non-existent  blog",
			"event": [
				{
					"listen": "test",
					"script": {
						"exec": [
							"pm.test(\"Status test\", function () {\r",
							"    pm.response.to.have.status(404);\r",
							"});"
						],
						"type": "text/javascript"
					}
				}
			],
			"request": {
				"auth": {
					"type": "bearer",
					"bearer": [
						{
							"key": "token",
							"value": "{{token}}",
							"type": "string"
						}
					]
				},
				"method": "DELETE",
				"header": [],
				"url": {
					"raw": "{{base_url}}/api/blogs/{{lastBlog}}",
					"host": [
						"{{base_url}}"
					],
					"path": [
						"api",
						"blogs",
						"{{lastBlog}}"
					]
				}
			},
			"response": []
		}
	]
}